ItemCode,ItemName,Retail,Processor,Distributor,Grow,Properties,ItemGroupName,ManageSerialNumbers,ManageBatchNumbers,HasBillOfMaterials,InventoryItem,PurchaseItem,SalesItem,UnitPrice,DefaultWarehouse,Sampleable,Batchable,Processable,ProcessType
~,~Cannabis Plant,N,N,N,Y,Cannabis Plant,Cannabis Plant,Y,N,Y,Y,N,N,,3001,N,N,Y,Standard
~BDR-BK,~Budder - BULK,N,Y,Y,N,Concentrate Bulk,Unb Concentrate,N,Y,Y,Y,Y,Y,,8501,N,N,N,Standard
~BDR-QA,~Budder - QA,N,Y,Y,N,Concentrate Lot QA,Concentrate Lot QA,N,Y,Y,Y,Y,Y,,8501,N,N,N,Standard
~BH-BK,~Bubble Hash - BULK,N,Y,Y,N,Concentrate Bulk,Unb Concentrate,N,Y,Y,Y,Y,Y,,8501,Y,N,Y,Standard
~BH-QA,~Bubble Hash - QA,N,Y,Y,N,Concentrate Lot QA,Concentrate Lot QA,N,Y,Y,Y,Y,Y,,8501,N,N,N,Standard
~BU-BK,~Infused Butter/Fat - BULK,N,Y,Y,N,Concentrate Bulk,Unb Concentrate,N,Y,Y,Y,Y,Y,,8501,Y,N,Y,Standard
~BU-QA,~Infused Butter/Fat - QA,N,Y,Y,N,Concentrate Lot QA,Concentrate Lot QA,N,Y,Y,Y,Y,Y,,8501,Y,N,Y,Standard
~CL,~Clone,N,N,N,Y,Clone,Clone,N,Y,Y,Y,Y,Y,,2001,N,N,N,Standard
~CO2-BK,~CO2 Hash Oil - BULK,N,Y,Y,N,Concentrate Bulk,Unb Concentrate,N,Y,Y,Y,Y,Y,,8501,Y,N,Y,Standard
~CO2-QA,~CO2 Hash Oil - QA,N,Y,Y,N,Concentrate Lot QA,Concentrate Lot QA,N,Y,Y,Y,Y,Y,,8501,N,N,N,Standard
~CO-BK,~ Infused Cooking Oil - BULK,N,Y,Y,N,Concentrate Bulk,Unb Concentrate,N,Y,Y,Y,Y,Y,,8501,Y,N,Y,Standard
~CRD-BK,~Crude Oil - BULK,N,Y,Y,N,Concentrate Bulk,Unb Concentrate,N,Y,Y,Y,Y,Y,,8501,N,N,N,Standard
~CRD-QA,~Crude Oil - QA,N,Y,Y,N,Concentrate Lot QA,Concentrate Lot QA,N,Y,Y,Y,Y,Y,,8501,N,N,N,Standard
~DC,~Dry Cannabis Plant,N,N,N,Y,Dry Cannabis,Dry Cannabis,N,Y,Y,Y,Y,Y,,6001,N,N,N,Standard
~DIS-BK,~Distillate - BULK,N,Y,Y,N,Concentrate Bulk,Unb Concentrate,N,Y,Y,Y,Y,Y,,8501,N,N,N,Standard
~DIS-QA,~Distillate - QA,N,Y,Y,N,Concentrate Lot QA,Concentrate Lot QA,N,Y,Y,Y,Y,Y,,8501,N,N,N,Standard
~DUFL,~Dry Unbatched Flower,N,N,N,Y,Dry Unbatched Cannabis,Dry Unb Flower,N,Y,Y,Y,Y,Y,,7001,N,N,N,Standard
~DUTR,~Dry Unbatched Trim,N,N,N,Y,Dry Unbatched Trim,Dry Unb Trim,N,Y,Y,Y,Y,Y,,7001,N,N,N,Standard
~ED,~Solid Edible - BULK,N,Y,Y,N,Edible Bulk,Unb Concentrate,N,Y,Y,Y,Y,Y,,8501,N,N,N,Standard
~ED-BK,~Solid Edible - BULK,N,Y,Y,N,Concentrate Bulk,Unb Concentrate,N,Y,Y,Y,Y,Y,,8501,Y,N,Y,Standard
~ED-QA,~Solid Edible Lot - QA,N,Y,Y,N,Concentrate Bulk,Unb Concentrate,N,Y,Y,Y,Y,Y,,8501,Y,N,Y,Standard
~FL,~Flower Lot - QA,N,Y,Y,Y,Flower lot QA,Flower Lot QA,N,Y,Y,Y,Y,Y,,8001,Y,N,Y,Standard
~FO-BK,~Food Grade Solvent Extract - BULK,N,Y,Y,N,Concentrate Bulk,Unb Concentrate,N,Y,Y,Y,Y,Y,,8501,Y,N,Y,Standard
~FO-QA,~Food Grade Solvent Extract - QA,N,Y,Y,N,Concentrate Lot QA,Concentrate Lot QA,N,Y,Y,Y,Y,Y,,8501,Y,N,Y,Standard
~FUFL,~Frozen Unbatched Flower,N,N,N,Y,Frozen Unbatched Flower,Frzn Unb Flower,N,Y,Y,Y,Y,Y,,7001,N,N,N,Standard
~FUTR,~Frozen Unbatched Trim,N,N,N,Y,Frozen Unbatched Trim,Frzn Unb Trim,N,Y,Y,Y,Y,Y,,7001,N,N,N,Standard
~GB,~Finely Ground Bud,Y,Y,Y,N,Ground Cannabis,Finished Good,N,Y,Y,Y,Y,Y,,9001,N,N,N,Standard
~HA-BK,~Hash - BULK,N,Y,Y,N,Concentrate Bulk,Unb Concentrate,N,Y,Y,Y,Y,Y,,8501,Y,N,Y,Standard
~HA-QA,~Hash - QA,N,Y,Y,N,Concentrate Lot QA,Concentrate Lot QA,N,Y,Y,Y,Y,Y,,8501,N,N,N,Standard
~HCB-BK,~Honeycomb - BULK,N,Y,Y,N,Concentrate Bulk,Unb Concentrate,N,Y,Y,Y,Y,Y,,8501,N,N,N,Standard
~HCB-QA,~Honeycomb - QA,N,Y,Y,N,Concentrate Lot QA,Concentrate Lot QA,N,Y,Y,Y,Y,Y,,8501,N,N,N,Standard
~HW-BK,~Hydrocarbon Wax - BULK,N,Y,Y,N,Concentrate Bulk,Unb Concentrate,N,Y,Y,Y,Y,Y,,8501,Y,N,Y,Standard
~HW-QA,~Hydrocarbon Wax - QA,N,Y,Y,N,Concentrate Lot QA,Concentrate Lot QA,N,Y,Y,Y,Y,Y,,8501,N,N,N,Standard
~JO-.5G,~Joint - 0.5G,Y,Y,Y,N,Joint,Joint,N,Y,Y,Y,Y,Y,,9001,N,N,Y,Standard
~JO-1G,~Joint - 1G,Y,Y,Y,N,Joint,Joint,N,Y,Y,Y,Y,Y,,9001,N,N,Y,Standard
~KF-BK,~Kief - BULK,N,Y,Y,N,Concentrate Bulk,Unb Concentrate,N,Y,Y,Y,Y,Y,,9001,Y,N,N,Standard
~KF-QA,~Kief - QA,N,Y,Y,N,Concentrate Lot QA,Concentrate Lot QA,N,Y,Y,Y,Y,Y,,8501,N,N,N,Standard
~LBDR-BK,~Live Budder - BULK,N,Y,Y,N,Concentrate Bulk,Unb Concentrate,N,Y,Y,Y,Y,Y,,8501,N,N,N,Standard
~LBDR-QA,~Live Budder - QA,N,Y,Y,N,Concentrate Lot QA,Concentrate Lot QA,N,Y,Y,Y,Y,Y,,8501,N,N,N,Standard
~LBH-BK,~Live Bubble Hash - BULK,N,Y,Y,N,Concentrate Bulk,Unb Concentrate,N,Y,Y,Y,Y,Y,,8501,N,N,N,Standard
~LBH-QA,~Live Bubble Hash - QA,N,Y,Y,N,Concentrate Lot QA,Concentrate Lot QA,N,Y,Y,Y,Y,Y,,8501,N,N,N,Standard
~LBU-BK,~Live Infused Butter/Fat - BULK,N,Y,Y,N,Concentrate Bulk,Unb Concentrate,N,Y,Y,Y,Y,Y,,8501,N,N,N,Standard
~LCO2-BK,~Live CO2 Hash Oil - BULK,N,Y,Y,N,Concentrate Bulk,Unb Concentrate,N,Y,Y,Y,Y,Y,,8501,N,N,N,Standard
~LCO2-QA,~Live CO2 Hash Oil - QA,N,Y,Y,N,Concentrate Lot QA,Concentrate Lot QA,N,Y,Y,Y,Y,Y,,8501,N,N,N,Standard
~LCO-BK,~Live Infused Cooking Oil - BULK,N,Y,Y,N,Concentrate Bulk,Unb Concentrate,N,Y,Y,Y,Y,Y,,8501,N,N,N,Standard
~LCRD-BK,~Live Crude Oil - BULK,N,Y,Y,N,Concentrate Bulk,Unb Concentrate,N,Y,Y,Y,Y,Y,,8501,N,N,N,Standard
~LCRD-QA,~Live Crude Oil - QA,N,Y,Y,N,Concentrate Lot QA,Concentrate Lot QA,N,Y,Y,Y,Y,Y,,8501,N,N,N,Standard
~LDIS-BK,~Live Distillate - BULK,N,Y,Y,N,Concentrate Bulk,Unb Concentrate,N,Y,Y,Y,Y,Y,,8501,N,N,N,Standard
~LDIS-QA,~Live Distillate - QA,N,Y,Y,N,Concentrate Lot QA,Concentrate Lot QA,N,Y,Y,Y,Y,Y,,8501,N,N,N,Standard
~LE-BK,~Liquid Edible - BULK,N,Y,Y,N,Concentrate Bulk,Unb Concentrate,N,Y,Y,Y,Y,Y,,8501,Y,N,Y,Standard
~LFO-BK,~Live Food Grade Solvent Extract - BULK,N,Y,Y,N,Concentrate Bulk,Unb Concentrate,N,Y,Y,Y,Y,Y,,8501,N,N,N,Standard
~LHA-BK,~Live Hash - BULK,N,Y,Y,N,Concentrate Bulk,Unb Concentrate,N,Y,Y,Y,Y,Y,,8501,N,N,N,Standard
~LHA-QA,~Live Hash - QA,N,Y,Y,N,Concentrate Lot QA,Concentrate Lot QA,N,Y,Y,Y,Y,Y,,8501,N,N,N,Standard
~LHCB-BK,~Live Honeycomb - BULK,N,Y,Y,N,Concentrate Bulk,Unb Concentrate,N,Y,Y,Y,Y,Y,,8501,N,N,N,Standard
~LHCB-QA,~Live Honeycomb - QA,N,Y,Y,N,Concentrate Lot QA,Concentrate Lot QA,N,Y,Y,Y,Y,Y,,8501,N,N,N,Standard
~LHW-BK,~Live Hydrocarbon Wax - BULK,N,Y,Y,N,Concentrate Bulk,Unb Concentrate,N,Y,Y,Y,Y,Y,,8501,N,N,N,Standard
~LHW-QA,~Live Hydrocarbon Wax - QA,N,Y,Y,N,Concentrate Lot QA,Concentrate Lot QA,N,Y,Y,Y,Y,Y,,8501,N,N,N,Standard
~LKF-BK,~Live Kief - BULK,N,Y,Y,N,Concentrate Bulk,Unb Concentrate,N,Y,Y,Y,Y,Y,,8501,N,N,N,Standard
~LKF-QA,~Live Kief - QA,N,Y,Y,N,Concentrate Lot QA,Concentrate Lot QA,N,Y,Y,Y,Y,Y,,8501,N,N,N,Standard
~LRES-BK,~Live Resin - BULK,N,Y,Y,N,Concentrate Bulk,Unb Concentrate,N,Y,Y,Y,Y,Y,,8501,N,N,N,Standard
~LRES-QA,~Live Resin - QA,N,Y,Y,N,Concentrate Lot QA,Concentrate Lot QA,N,Y,Y,Y,Y,Y,,8501,N,N,N,Standard
~LROS-BK,~Live Rosin - BULK,N,Y,Y,N,Concentrate Bulk,Unb Concentrate,N,Y,Y,Y,Y,Y,,8501,N,N,N,Standard
~LROS-QA,~Live Rosin - QA,N,Y,Y,N,Concentrate Lot QA,Concentrate Lot QA,N,Y,Y,Y,Y,Y,,8501,N,N,N,Standard
~LSHA-BK,~Live Shatter - BULK,N,Y,Y,N,Concentrate Bulk,Unb Concentrate,N,Y,Y,Y,Y,Y,,8501,N,N,N,Standard
~LSHA-QA,~Live Shatter - QA,N,Y,Y,N,Concentrate Lot QA,Concentrate Lot QA,N,Y,Y,Y,Y,Y,,8501,N,N,N,Standard
~PG-BDR-.5G,~Packaged Budder - 0.5G,Y,Y,Y,N,Packaged Good,Finished Good,N,Y,Y,Y,Y,Y,,9001,N,N,N,Standard
~PG-BDR-1G,~Packaged Budder - 1G,Y,Y,Y,N,Packaged Good,Finished Good,N,Y,Y,Y,Y,Y,,9001,N,N,N,Standard
~PG-BH-.5G,~Packaged Bubble Hash - 0.5G,Y,Y,Y,N,Packaged Good,Finished Good,N,Y,Y,Y,Y,Y,,9001,N,N,N,Standard
~PG-BH-1G,~Packaged Bubble Hash - 1G,Y,Y,Y,N,Packaged Good,Finished Good,N,Y,Y,Y,Y,Y,,9001,N,N,N,Standard
~PG-CO2-.5G,~Packaged CO2 Cartridge- 0.5G,Y,Y,Y,N,Packaged Good,Finished Good,N,Y,Y,Y,Y,Y,,9001,N,N,N,Standard
~PG-CO2-1G,~Packaged CO2 Cartridge- 1G,Y,Y,Y,N,Packaged Good,Finished Good,N,Y,Y,Y,Y,Y,,9001,N,N,N,Standard
~PG-CRD-.5G,~Packaged Crude Oil - 0.5G,Y,Y,Y,N,Packaged Good,Finished Good,N,Y,Y,Y,Y,Y,,9001,N,N,N,Standard
~PG-CRD-1G,~Packaged Crude Oil - 1G,Y,Y,Y,N,Packaged Good,Finished Good,N,Y,Y,Y,Y,Y,,9001,N,N,N,Standard
~PG-DIS-.5G,~Packaged Distillate - 0.5G,Y,Y,Y,N,Packaged Good,Finished Good,N,Y,Y,Y,Y,Y,,9001,N,N,N,Standard
~PG-DIS-1G,~Packaged Distillate - 1G,Y,Y,Y,N,Packaged Good,Finished Good,N,Y,Y,Y,Y,Y,,9001,N,N,N,Standard
~PG-ED-1P,~Packaged Solid Edible,Y,Y,Y,N,Packaged Good,Finished Good,N,Y,Y,Y,Y,Y,,9001,N,N,N,Standard
~PG-ED-3P,~Packaged Solid Edible - 3 Pack,Y,Y,Y,N,Packaged Good,Finished Good,N,Y,Y,Y,Y,Y,,9001,N,N,N,Standard
~PG-ED-6P,~Packaged Solid Edible - 6 Pack,Y,Y,Y,N,Packaged Good,Finished Good,N,Y,Y,Y,Y,Y,,9001,N,N,N,Standard
~PG-FL-113G,~Packaged Flower- 113G,Y,Y,Y,N,Packaged Good,Finished Good,N,Y,Y,Y,Y,Y,,9001,N,N,N,Standard
~PG-FL-14G,~Packaged Flower- 14G,Y,Y,Y,N,Packaged Good,Finished Good,N,Y,Y,Y,Y,Y,,9001,N,N,N,Standard
~PG-FL-1G,~Packaged Flower- 1G,Y,Y,Y,N,Packaged Good,Finished Good,N,Y,Y,Y,Y,Y,,9001,N,N,N,Standard
~PG-FL-227G,~Packaged Flower - 227G,Y,Y,Y,N,Packaged Good,Finished Good,N,Y,Y,Y,Y,Y,,9001,N,N,N,Standard
~PG-FL-28G,~Packaged Flower- 28G,Y,Y,Y,N,Packaged Good,Finished Good,N,Y,Y,Y,Y,Y,,9001,N,N,N,Standard
~PG-FL-2G,~Packaged Flower- 2G,Y,Y,Y,N,Packaged Good,Finished Good,N,Y,Y,Y,Y,Y,,9001,N,N,N,Standard
~PG-FL-3.5G,~Packaged Flower- 3.5G,Y,Y,Y,N,Packaged Good,Finished Good,N,Y,Y,Y,Y,Y,,9001,N,N,N,Standard
~PG-FL-454G,~Packaged Flower - 454G,Y,Y,Y,N,Packaged Good,Finished Good,N,Y,Y,Y,Y,Y,,9001,N,N,N,Standard
~PG-FL-4G,~Packaged Flower- 4G,Y,Y,Y,N,Packaged Good,Finished Good,N,Y,Y,Y,Y,Y,,9001,N,N,N,Standard
~PG-FL-7G,~Packaged Flower- 7G,Y,Y,Y,N,Packaged Good,Finished Good,N,Y,Y,Y,Y,Y,,9001,N,N,N,Standard
~PG-HA-.5G,~Packaged Hash - 0.5G,Y,Y,Y,N,Packaged Good,Finished Good,N,Y,Y,Y,Y,Y,,9001,N,N,N,Standard
~PG-HA-1G,~Packaged Hash - 1G,Y,Y,Y,N,Packaged Good,Finished Good,N,Y,Y,Y,Y,Y,,9001,N,N,N,Standard
~PG-HCB-.5G,~Packaged Honeycomb - 0.5G,Y,Y,Y,N,Packaged Good,Finished Good,N,Y,Y,Y,Y,Y,,9001,N,N,N,Standard
~PG-HCB-1G,~Packaged Honeycomb - 1G,Y,Y,Y,N,Packaged Good,Finished Good,N,Y,Y,Y,Y,Y,,9001,N,N,N,Standard
~PG-HW-.5G,~Packaged Hydrocarbon Wax - 0.5G,Y,Y,Y,N,Packaged Good,Finished Good,N,Y,Y,Y,Y,Y,,9001,N,N,N,Standard
~PG-HW-1G,~Packaged Hydrocarbon Wax - 1G,Y,Y,Y,N,Packaged Good,Finished Good,N,Y,Y,Y,Y,Y,,9001,N,N,N,Standard
~PG-JO-.5G,~Packaged Joint - 0.5G,Y,Y,Y,N,Packaged Good,Finished Good,N,Y,Y,Y,Y,Y,,9001,N,N,N,Standard
~PG-JO-1G,~Packaged Joint - 1G,Y,Y,Y,N,Packaged Good,Finished Good,N,Y,Y,Y,Y,Y,,9001,N,N,N,Standard
~PG-JOPK-.5G,~Packaged Joint 3pack - 0.5G,Y,Y,Y,N,Packaged Good,Finished Good,N,Y,Y,Y,Y,Y,,9001,N,N,N,Standard
~PG-JOPK-1G,~Packaged Joint 3pack - 1G,Y,Y,Y,N,Packaged Good,Finished Good,N,Y,Y,Y,Y,Y,,9001,N,N,N,Standard
~PG-KF-.5G,~Packaged Kief - 0.5G,Y,Y,Y,N,Packaged Good,Finished Good,N,Y,Y,Y,Y,Y,,9001,N,N,N,Standard
~PG-KF-1G,~Packaged Kief - 1G,Y,Y,Y,N,Packaged Good,Finished Good,N,Y,Y,Y,Y,Y,,9001,N,N,N,Standard
~PG-LE,~Packaged Liquid Edible,Y,Y,Y,N,Packaged Good,Finished Good,N,Y,Y,Y,Y,Y,,9001,N,N,N,Standard
~PG-PEN-1G,~Packaged CO2 Vape Pen - 1G,Y,Y,Y,N,Packaged Good,Finished Good,N,Y,Y,Y,Y,Y,,9001,N,N,N,Standard
~PG-RES-.5G,~Packaged Live Resin - 0.5G,Y,Y,Y,N,Packaged Good,Finished Good,N,Y,Y,Y,Y,Y,,9001,N,N,N,Standard
~PG-RES-1G,~Packaged Live Resin - 1G,Y,Y,Y,N,Packaged Good,Finished Good,N,Y,Y,Y,Y,Y,,9001,N,N,N,Standard
~PG-ROS-.5G,~Packaged Rosin - 0.5G,Y,Y,Y,N,Packaged Good,Finished Good,N,Y,Y,Y,Y,Y,,9001,N,N,N,Standard
~PG-ROS-1G,~Packaged Rosin - 1G,Y,Y,Y,N,Packaged Good,Finished Good,N,Y,Y,Y,Y,Y,,9001,Y,N,N,Standard
~PG-SHA-.5G,~Packaged Shatter - 0.5G,Y,Y,Y,N,Packaged Good,Finished Good,N,Y,Y,Y,Y,Y,,9001,N,N,N,Standard
~PG-SHA-1G,~Packaged Shatter - 1G,Y,Y,Y,N,Packaged Good,Finished Good,N,Y,Y,Y,Y,Y,,9001,N,N,N,Standard
~PG-TP,~Packaged Topical,Y,Y,Y,N,Packaged Good,Finished Good,N,Y,Y,Y,Y,Y,,9001,N,N,N,Standard
~PT,~Plant Tissue,N,N,N,Y,Plant Tissue,Plant Tissue,N,Y,Y,Y,Y,Y,,1001,N,N,N,Standard
~RES-BK,~Live Resin - BK,N,Y,Y,N,Concentrate Bulk,Unb Concentrate,N,Y,Y,Y,Y,Y,,8501,N,N,N,Standard
~RES-QA,~Live Resin - QA,N,Y,Y,N,Concentrate Lot QA,Concentrate Lot QA,N,Y,Y,Y,Y,Y,,8501,N,N,N,Standard
~ROS-BK,~Rosin - BULK,N,Y,Y,N,Concentrate Bulk,Unb Concentrate,N,Y,Y,Y,Y,Y,,8501,N,N,N,Standard
~ROS-QA,~Rosin - QA,N,Y,Y,N,Concentrate Lot QA,Concentrate Lot QA,N,Y,Y,Y,Y,Y,,8501,N,N,N,Standard
~SA-BDR,~Budder - Sample,Y,Y,Y,Y,Sample,Sample,N,Y,Y,Y,Y,Y,,9001,N,N,N,Standard
~SA-BH,~Bubble Hash - Sample,Y,Y,Y,Y,Sample,Sample,N,Y,Y,Y,N,N,,9001,N,N,N,Standard
~SA-BU,~Infused Butter/Fat - Sample,Y,Y,Y,Y,Sample,Sample,N,Y,Y,Y,Y,Y,,9001,N,N,N,Standard
~SA-CO,~Infused Cooking Oil - Sample,Y,Y,Y,Y,Sample,Sample,N,Y,Y,Y,Y,Y,,9001,N,N,N,Standard
~SA-CO2,~CO2 Hash Oil - Sample,Y,Y,Y,Y,Sample,Sample,N,Y,Y,Y,N,N,,1001,N,N,N,Standard
~SA-CRD,~Crude Oil - Sample,Y,Y,Y,Y,Sample,Sample,N,Y,Y,Y,Y,Y,,9001,N,N,N,Standard
~SA-DIS,~Distillate - Sample,Y,Y,Y,Y,Sample,Sample,N,Y,Y,Y,Y,Y,,9001,N,N,N,Standard
~SA-ED,~Solid Edible - Sample,Y,Y,Y,Y,Sample,Sample,N,Y,Y,Y,Y,Y,,9001,N,N,N,Standard
~SA-FL,~Flower Lot - Sample,Y,Y,Y,Y,Sample,Sample,N,Y,Y,Y,Y,Y,,9001,N,N,N,Standard
~SA-FO,~Food Grade - Sample,Y,Y,Y,Y,Sample,Sample,N,Y,Y,Y,Y,Y,,9001,N,N,N,Standard
~SA-HA,~Hash - Sample,Y,Y,Y,Y,Sample,Sample,N,Y,Y,Y,Y,Y,,9001,N,N,N,Standard
~SA-HCB,~Honeycomb - Sample,Y,Y,Y,Y,Sample,Sample,N,Y,Y,Y,Y,Y,,9001,N,N,N,Standard
~SA-HW,~Hydrocarbon Wax - Sample,Y,Y,Y,Y,Sample,Sample,N,Y,Y,Y,N,N,,2001,N,N,N,Standard
~SA-KF,~Kief - Sample,Y,Y,Y,Y,Sample,Sample,N,Y,Y,Y,Y,Y,,9001,N,N,N,Standard
~SA-LE,~Liquid Edible - Sample,Y,Y,Y,Y,Sample,Sample,N,Y,Y,Y,Y,Y,,9001,N,N,N,Standard
~SA-RES,~Live Resin - Sample,Y,Y,Y,Y,Sample,Sample,N,Y,Y,Y,Y,Y,,9001,N,N,N,Standard
~SA-ROS,~Rosin - Sample,Y,Y,Y,Y,Sample,Sample,N,Y,Y,Y,Y,Y,,9001,N,N,N,Standard
~SA-SHA,~Shatter - Sample,Y,Y,Y,Y,Sample,Sample,N,Y,Y,Y,Y,Y,,9001,N,N,N,Standard
~SA-SNIFF,~Sniffer Jar - Sample,Y,Y,Y,Y,Sample,Sample,N,Y,Y,Y,Y,Y,,9001,N,N,N,Standard
~SA-TR,~Trim Lot - Sample,Y,Y,Y,Y,Sample,Sample,N,Y,Y,Y,Y,Y,,9001,N,N,N,Standard
~SE,~Seeds,N,N,N,Y,Seed,Seed,N,Y,Y,Y,Y,Y,,1001,N,N,N,Standard
~SHA-BK,~Shatter - BULK,N,Y,Y,N,Concentrate Bulk,Unb Concentrate,N,Y,Y,Y,Y,Y,,8501,N,N,N,Standard
~SHA-QA,~Shatter - QA,N,Y,Y,N,Concentrate Lot QA,Concentrate Lot QA,N,Y,Y,Y,Y,Y,,8501,N,N,N,Standard
~TR,~Trim Lot - QA,N,Y,Y,Y,Trim Lot QA,Trim Lot QA,N,Y,Y,Y,Y,Y,,8001,Y,N,Y,Standard
~WA,~Waste,Y,Y,Y,Y,Cannabis Waste,Cannabis Waste,N,Y,N,Y,N,N,,9999,N,N,N,Standard
~WC,~Wet Cannabis Plant,N,N,N,Y,Wet Cannabis,Wet Cannabis,N,Y,Y,Y,Y,Y,,6001,N,N,N,Standard
~WUFL,~Wet Unbatched Flower,N,N,N,Y,Wet Unbatched Cannabis,Wet Unb Flower,N,Y,Y,Y,Y,Y,,7001,N,N,N,Standard
~WUTR,~Wet Unbatched Trim,N,N,N,Y,Wet Trim,Wet Unb Trim,N,Y,Y,Y,Y,Y,,7001,N,N,N,Standard
BAG0001,Planting Bag - 1 Gallon,N,N,N,Y,,Growing Accessories,N,N,N,Y,Y,N,,10,N,N,N,Standard
BAG0005,Planting Bag - 5 Gallon,N,N,N,Y,,Growing Accessories,N,N,N,Y,Y,N,,10,N,N,N,Standard
BFS0001,Bloom Feed Stock,N,N,N,Y,,Nutrients,N,N,Y,Y,N,N,,9996,N,N,N,Standard
BOX0001,Box - 1,N,Y,Y,N,,Packaging Supplies,N,N,N,Y,Y,N,,10,N,N,N,Standard
BOX0002,Box - 2,N,Y,Y,N,,Packaging Supplies,N,N,N,Y,Y,N,,10,N,N,N,Standard
CON0001,Cone - Small,N,Y,Y,N,,Packaging Supplies,N,N,N,Y,Y,N,,10,N,N,N,Standard
CON0002,Cone - Large,N,Y,Y,N,,Packaging Supplies,N,N,N,Y,Y,N,,10,N,N,N,Standard
CTG0005,Cartridge - 0.5G,N,Y,Y,N,,Packaging Supplies,N,N,N,Y,Y,N,,10,N,N,N,Standard
CTG0010,Cartridge - 1G,N,Y,Y,N,,Packaging Supplies,N,N,N,Y,Y,N,,10,N,N,N,Standard
CUB0001,Planting Cube - Small,N,N,N,Y,,Growing Accessories,N,N,N,Y,Y,N,,10,N,N,N,Standard
CUB0002,Planting Cube - Large,N,N,N,Y,,Growing Accessories,N,N,N,Y,Y,N,,10,N,N,N,Standard
DRT0001,Planting Soil,N,N,N,Y,,Growing Accessories,N,N,N,Y,Y,N,,10,N,N,N,Standard
FAB0001,Fabric Bucket - 1 Gallon,N,N,N,Y,,Growing Accessories,N,N,N,Y,Y,N,,10,N,N,N,Standard
FAB0003,Fabric Bucket - 3 Gallon,N,N,N,Y,,Growing Accessories,N,N,N,Y,Y,N,,10,N,N,N,Standard
FAB0005,Fabric Bucket - 5 Gallon,N,N,N,Y,,Growing Accessories,N,N,N,Y,Y,N,,10,N,N,N,Standard
FUNG001,Fungacide X,N,N,N,Y,,Fungicides,N,N,N,Y,Y,N,,10,N,N,N,Standard
H2O,Water,N,N,N,Y,,Growing Accessories,N,N,N,Y,Y,N,,9996,N,N,N,Standard
JAR0001,Dab Jar - 1G,N,Y,Y,N,,Packaging Supplies,N,N,N,Y,Y,N,,8501,N,N,N,Standard
JAR0002,Dab Jar - 0.5G,N,Y,Y,N,,Packaging Supplies,N,N,N,Y,Y,N,,8501,N,N,N,Standard
JAR0003,Jar - Small,N,Y,Y,N,,Packaging Supplies,N,N,N,Y,Y,N,,8501,N,N,N,Standard
JAR0004,Jar - Medium,N,Y,Y,N,,Packaging Supplies,N,N,N,Y,Y,N,,8501,N,N,N,Standard
JAR0005,Jar - Large,N,Y,Y,N,,Packaging Supplies,N,N,N,Y,Y,N,,8501,N,N,N,Standard
LBL0001,Label - 1,N,Y,Y,N,,Packaging Supplies,N,N,N,Y,Y,N,,8501,N,N,N,Standard
LBL0002,Label - 2,N,Y,Y,N,,Packaging Supplies,N,N,N,Y,Y,N,,8501,N,N,N,Standard
MED0001,Planting Medium 1,N,N,N,Y,,Growing Accessories,N,N,N,Y,Y,N,,4001,N,N,N,Standard
MED0002,Planting Medium 2,N,N,N,Y,,Growing Accessories,N,N,N,Y,Y,N,,4001,N,N,N,Standard
PEN0001,Vape Pen,N,Y,Y,N,,Packaging Supplies,N,N,N,Y,Y,N,,8501,N,N,N,Standard
PEST001,Pesticide X,N,N,N,Y,,Pesticides,N,N,N,Y,Y,N,,10,N,N,N,Standard
PKG0005,Bag - 0.5G,N,Y,Y,N,,Packaging Supplies,N,N,N,Y,Y,N,,8501,N,N,N,Standard
PKG0010,Bag - 1G,N,Y,Y,N,,Packaging Supplies,N,N,N,Y,Y,N,,8501,N,N,N,Standard
PKG0020,Bag - 2G,N,Y,Y,N,,Packaging Supplies,N,N,N,Y,Y,N,,8501,N,N,N,Standard
PKG0035,Bag - 3.5G (1/8 oz),N,Y,Y,N,,Packaging Supplies,N,N,N,Y,Y,N,,8501,N,N,N,Standard
PKG0040,Bag - 4G,N,Y,Y,N,,Packaging Supplies,N,N,N,Y,Y,N,,8501,N,N,N,Standard
PKG0070,Bag - 7G (1/4 oz),N,Y,Y,N,,Packaging Supplies,N,N,N,Y,Y,N,,8501,N,N,N,Standard
PKG0140,Bag - 14G (1/2 oz),N,Y,Y,N,,Packaging Supplies,N,N,N,Y,Y,N,,8501,N,N,N,Standard
PKG0280,Bag - 28G (1 oz),N,Y,Y,N,,Packaging Supplies,N,N,N,Y,Y,N,,8501,N,N,N,Standard
PKG1134,Bag - 113.4G (1/4 pound),N,Y,Y,N,,Packaging Supplies,N,N,N,Y,Y,N,,8501,N,N,N,Standard
PKG2270,Bag - 227G (1/2 pound),N,Y,Y,N,,Packaging Supplies,N,N,N,Y,Y,N,,8501,N,N,N,Standard
PKG4540,Bag - 454G (1 pound),N,Y,Y,N,,Packaging Supplies,N,N,N,Y,Y,N,,8501,N,N,N,Standard
POT0001,Planting Bucket - 1 Gallon,N,N,N,Y,,Growing Accessories,N,N,N,Y,Y,N,,4001,N,N,N,Standard
POT0005,Planting Bucket - 5 Gallon,N,N,N,Y,,Growing Accessories,N,N,N,Y,Y,N,,10,N,N,N,Standard
POT0007,Planting Bucket - 7 Gallon,N,N,N,Y,,Growing Accessories,N,N,N,Y,Y,N,,10,N,N,N,Standard
POT0015,Planting Bucket - 15 Gallon,N,N,N,Y,,Growing Accessories,N,N,N,Y,Y,N,,10,N,N,N,Standard
PPR0001,Paper - Small,N,Y,Y,N,,Packaging Supplies,N,N,N,Y,Y,N,,8501,N,N,N,Standard
PPR0002,Paper - Large,N,Y,Y,N,,Packaging Supplies,N,N,N,Y,Y,N,,8501,N,N,N,Standard
VFS0001,Veg Feed Stock,N,N,N,Y,,Nutrients,N,N,Y,Y,N,N,,10,N,N,N,Standard
